РАСПИСАНИЕ 2 КУРСА С 12. 09. 2016 ПО 17. 09. 2016 |РАСПИСАНИЕ 2 КУРСА С 12. 09. 2016 ПО 17. 09. 2016 |РАСПИСАНИЕ 2 КУРСА С 12. 09. 2016 ПО 17. 09. 2016 |РАСПИСАНИЕ 2 КУРСА С 12. 09. 2016 ПО 17. 09. 2016 |РАСПИСАНИЕ 2 КУРСА С 12. 09. 2016 ПО 17. 09. 2016 |РАСПИСАНИЕ 2 КУРСА С 12. 09. 2016 ПО 17. 09. 2016 |РАСПИСАНИЕ 2 КУРСА С 12. 09. 2016 ПО 17. 09. 2016 |РАСПИСАНИЕ 2 КУРСА С 12. 09. 2016 ПО 17. 09. 2016 |РАСПИСАНИЕ 2 КУРСА С 12. 09. 2016 ПО 17. 09. 2016 | |
 |  |  | |
МИ-21 | МИ-22 | ФИ-21 | ЭК-21 | ПМ-21 | КФ-21 | ФИ-21 | ФМ-21 |  |  |  | |
ПОНЕДЕЛЬНИК |  |  |  | |
3 пара 11.55-13.15 | Ф И З И Ч Е С К А Я К У Л Ь Т У Р А | Ф И З И Ч Е С К А Я К У Л Ь Т У Р А | Ф И З И Ч Е С К А Я К У Л Ь Т У Р А | Ф И З И Ч Е С К А Я К У Л Ь Т У Р А | Ф И З И Ч Е С К А Я К У Л Ь Т У Р А | Ф И З И Ч Е С К А Я К У Л Ь Т У Р А |  |  |  |  |  | |
4 пара 13.30-14.50 | ПЕДАГОГИКА доц. МАТЫЦИНА И.Г. 502 | ПЕДАГОГИКА доц. МАТЫЦИНА И.Г. 502 | ПЕДАГОГИКА доц. МАТЫЦИНА И.Г. 502 | МАТЕМАТИЧЕСКИЙ АНАЛИЗ доц. ГРИЦУК Е.В. 602 | МАТЕМАТИЧЕСКИЙ АНАЛИЗ доц. ГРИЦУК Е.В. 602 | ОСНОВЫ ФУНКЦИОНАЛЬНОГО АНАЛИЗА И ТЕОРИИ ФУНКЦИЙ доц. САНЮКЕВИЧ А.В. 420 |  |  | |
5 пара 15.00-16.20 | АНАЛИТИЧЕСКАЯ ГЕОМЕТРИЯ И ПРЕОБРАЗОВАНИЯ ПЛОСКОСТИ доц. СЕРАЯ З.Н. 502 | АНАЛИТИЧЕСКАЯ ГЕОМЕТРИЯ И ПРЕОБРАЗОВАНИЯ ПЛОСКОСТИ доц. СЕРАЯ З.Н. 502 | МЕТОДЫ ОБРАБОТКИ РЕЗУЛЬТАТОВ ИЗМЕРЕНИЙ доц. ДЕМИДЧИК А.В. 501 | ВЫЧИСЛИТЕЛЬНЫЕ МЕТОДЫ АЛГЕБРЫ доц. МАТЫСИК О.В. 602 | ВЫЧИСЛИТЕЛЬНЫЕ МЕТОДЫ АЛГЕБРЫ доц. МАТЫСИК О.В. 602 | ТЕОРИЯ ВЕРОЯТНОСТЕЙ И МАТЕМАТИЧЕСКАЯ СТАТИСТИКА доц. МЕЛЬНИКОВА И.Н. 420 |  | |
6 пара 16.30-17.50 | ПСИХОЛОГИЯ преп. ТИТОВА Т.Ю. 502 | ПСИХОЛОГИЯ преп. ТИТОВА Т.Ю. 502 | ПСИХОЛОГИЯ преп. ТИТОВА Т.Ю. 502 |  |  |  |  |  |  |  |  | |
ВТОРНИК |  |  |  | |
3 пара 11.55-13.15 | АЛГЕБРА доц. ТРОФИМУК А.А. 614 | АЛГЕБРА доц. ТРОФИМУК А.А. 614 |  | ПРОГРАММИРОВАНИЕ доц. КОЗИНСКИЙ А.А. 704 | ПРОГРАММИРОВАНИЕ доц. КОЗИНСКИЙ А.А. 704 | СИСТЕМЫ УПРАВЛЕНИЯ БАЗАМИ ДАННЫХ доц. КОТОВ И.В. 606 |  |  |  |  |  | |
4 пара 13.30-14.50 | интегрированный модуль ЭКОНОМИКА: ЭКОНОМИЧЕСКАЯ ТЕОРИЯ доц. МАКАРЕВИЧ А.В. 617 | интегрированный модуль ЭКОНОМИКА: ЭКОНОМИЧЕСКАЯ ТЕОРИЯ доц. МАКАРЕВИЧ А.В. 617 | интегрированный модуль ЭКОНОМИКА: ЭКОНОМИЧЕСКАЯ ТЕОРИЯ доц. МАКАРЕВИЧ А.В. 617 | интегрированный модуль ЭКОНОМИКА: ЭКОНОМИЧЕСКАЯ ТЕОРИЯ доц. МАКАРЕВИЧ А.В. 617 | интегрированный модуль ЭКОНОМИКА: ЭКОНОМИЧЕСКАЯ ТЕОРИЯ доц. МАКАРЕВИЧ А.В. 617 | интегрированный модуль ЭКОНОМИКА: ЭКОНОМИЧЕСКАЯ ТЕОРИЯ доц. МАКАРЕВИЧ А.В. 617 |  |  |  |  | |
5 пара 15.00-16.20 | МЕТОДИКА ПРЕПОДАВАНИЯ МАТЕМАТИКИ доц. ПИВОВАРУК Т.В. 502 | МЕТОДИКА ПРЕПОДАВАНИЯ МАТЕМАТИКИ доц. ПИВОВАРУК Т.В. 502 | ОБЩАЯ ФИЗИКА доц. КОТЛОВСКИЙ О.А. 514 | ВЫЧИСЛИТЕЛЬНЫЕ МЕТОДЫ АЛГЕБРЫ доц. МАТЫСИК О.В. 602 | ВЫЧИСЛИТЕЛЬНЫЕ МЕТОДЫ АЛГЕБРЫ доц. МАТЫСИК О.В. 602 | ЭЛЕКТРИЧЕСТВО И МАГНЕТИЗМ проф. ПЛЕТЮХОВ В.А. 606 |  | |
6 пара 16.30-17.50 | ПЕДАГОГИКА доц. МАТЫЦИНА И.Г. 502 | ПЕДАГОГИКА доц. МАТЫЦИНА И.Г. 502 | ПЕДАГОГИКА доц. МАТЫЦИНА И.Г. 502 | ОСНОВЫ ФУНКЦИОНАЛЬНОГО АНАЛИЗА И ТЕОРИИ ФУНКЦИЙ доц. САНЮКЕВИЧ А.В. 606 |  |  |  |  |  | |
СРЕДА |  |  |  | |
3 пара 11.55-13.15 | Ф И З И Ч Е С К А Я К У Л Ь Т У Р А | Ф И З И Ч Е С К А Я К У Л Ь Т У Р А | Ф И З И Ч Е С К А Я К У Л Ь Т У Р А | Ф И З И Ч Е С К А Я К У Л Ь Т У Р А | Ф И З И Ч Е С К А Я К У Л Ь Т У Р А | Ф И З И Ч Е С К А Я К У Л Ь Т У Р А |  |  |  |  |  | |
4 пара 13.30-14.50 | интегрированный модуль ЭКОНОМИКА: СОЦИОЛОГИЯ доц. ЛАГУНОВСКАЯ Е.А. 502 | интегрированный модуль ЭКОНОМИКА: СОЦИОЛОГИЯ доц. ЛАГУНОВСКАЯ Е.А. 502 | интегрированный модуль ЭКОНОМИКА: СОЦИОЛОГИЯ доц. ЛАГУНОВСКАЯ Е.А. 502 | интегрированный модуль ЭКОНОМИКА: СОЦИОЛОГИЯ доц. ЛАГУНОВСКАЯ Е.А. 502 | интегрированный модуль ЭКОНОМИКА: СОЦИОЛОГИЯ доц. ЛАГУНОВСКАЯ Е.А. 502 | интегрированный модуль ЭКОНОМИКА: СОЦИОЛОГИЯ доц. ЛАГУНОВСКАЯ Е.А. 502 |  | |
5 пара 15.00-16.20 | ЭЛЕМЕНТАРНАЯ МАТЕМАТИКА И ПРАКТИКУМ ПО РЕШЕНИЮ ЗАДАЧ доц. ПИВОВАРУК Т.В. 614 | ЭЛЕМЕНТАРНАЯ МАТЕМАТИКА И ПРАКТИКУМ ПО РЕШЕНИЮ ЗАДАЧ доц. ПИВОВАРУК Т.В. 614 | МАТЕМАТИЧЕСКИЙ АНАЛИЗ доц. СЕНДЕР Н.Н. 501 | ВЫЧИСЛИТЕЛЬНЫЕ МЕТОДЫ АЛГЕБРЫ доц. МАТЫСИК О.В. 602 | ВЫЧИСЛИТЕЛЬНЫЕ МЕТОДЫ АЛГЕБРЫ доц. МАТЫСИК О.В. 602 | ДИФФЕРЕНЦИАЛЬНЫЕ И ИНТЕГРАЛЬНЫЕ УРАВНЕНИЯ доц. МЕЛЬНИКОВА И.Н. 420 |  |  |  | |
6 пара 16.30-17.50 | МАТЕМАТИЧЕСКИЙ АНАЛИЗ доц. МЕЛЬНИКОВА И.Н. 502 | МАТЕМАТИЧЕСКИЙ АНАЛИЗ доц. МЕЛЬНИКОВА И.Н. 502 | 10.05 ОБЩАЯ ФИЗИКА доц. КОТЛОВСКИЙ О.А. 501 | ПРОГРАММИРОВАНИЕ доц. КОЗИНСКИЙ А.А. 602 | ПРОГРАММИРОВАНИЕ доц. КОЗИНСКИЙ А.А. 602 | ПРОГРАММИРОВАНИЕ И МАТЕМ. МОДЕЛИРОВАНИЕ доц. КОТОВ И.В. 501 |  |  |  |  |  | |
ЧЕТВЕРГ | |
3 пара 11.55-13.15 | АЛГЕБРА доц. ТРОФИМУК А.А. 602 | АЛГЕБРА доц. ТРОФИМУК А.А. 602 | МЕТОДЫ ОБРАБОТКИ РЕЗУЛЬТАТОВ ИЗМЕРЕНИЙ доц. ДЕМИДЧИК А.В. 501 |  |  | ЭЛЕКТРИЧЕСТВО И МАГНЕТИЗМ проф. ПЛЕТЮХОВ В.А. 601 |  |  |  | |
4 пара 13.30-14.50 | АНАЛИТИЧЕСКАЯ ГЕОМЕТРИЯ И ПРЕОБРАЗОВАНИЯ ПЛОСКОСТИ доц. СЕРАЯ З.Н. 402 | АНАЛИТИЧЕСКАЯ ГЕОМЕТРИЯ И ПРЕОБРАЗОВАНИЯ ПЛОСКОСТИ доц. СЕРАЯ З.Н. 402 | МАТЕМАТИЧЕСКИЙ АНАЛИЗ доц. СЕНДЕР Н.Н. 501 | МАТЕМАТИЧЕСКИЙ АНАЛИЗ доц. ГРИЦУК Е.В. 502 | МАТЕМАТИЧЕСКИЙ АНАЛИЗ доц. ГРИЦУК Е.В. 502 | ДИФФЕРЕНЦИАЛЬНЫЕ И ИНТЕГРАЛЬНЫЕ УРАВНЕНИЯ доц. МЕЛЬНИКОВА И.Н. 420 |  |  | |
5 пара 15.00-16.20 | ЭЛЕМЕНТАРНАЯ МАТЕМАТИКА И ПРАКТИКУМ ПО РЕШЕНИЮ ЗАДАЧ доц. ПИВОВАРУК Т.В. 603 | ЭЛЕМЕНТАРНАЯ МАТЕМАТИКА И ПРАКТИКУМ ПО РЕШЕНИЮ ЗАДАЧ доц. ПИВОВАРУК Т.В. 603 | ТЕХНОЛОГИИ ПРОГРАММИРОВАНИЯ И МЕТОДЫ АЛГОРИТМИЗАЦИИ ст. пр. ТКАЧ С.Н. 608 | ПРОГРАММИРОВАНИЕ доц. КОЗИНСКИЙ А.А. 502 | ПРОГРАММИРОВАНИЕ доц. КОЗИНСКИЙ А.А. 502 | КРИПТОГРАФИЯ (комп. уво) доц. ТРОФИМУК А.А. 614 |  |  | |
6 пара 16.30-17.50 | МЕТОДИКА ПРЕПОДАВАНИЯ МАТЕМАТИКИ доц. ПИВОВАРУК Т.В. 614 | МЕТОДИКА ПРЕПОДАВАНИЯ МАТЕМАТИКИ доц. ПИВОВАРУК Т.В. 614 | ОБЩАЯ ФИЗИКА доц. КОТЛОВСКИЙ О.А. 518 | ДИСКРЕТНАЯ МАТЕМАТИКА И МАТЕМАТИЧЕСКАЯ ЛОГИКА доц. БУДЬКО А.Е. 502 | ДИСКРЕТНАЯ МАТЕМАТИКА И МАТЕМАТИЧЕСКАЯ ЛОГИКА доц. БУДЬКО А.Е. 502 |  |  | |
ПЯТНИЦА | |
3 пара 11.55-13.15 | АНАЛИТИЧЕСКАЯ ГЕОМЕТРИЯ И ПРЕОБРАЗОВАНИЯ ПЛОСКОСТИ доц. СЕРАЯ З.Н. 614 | АНАЛИТИЧЕСКАЯ ГЕОМЕТРИЯ И ПРЕОБРАЗОВАНИЯ ПЛОСКОСТИ доц. СЕРАЯ З.Н. 614 | ТЕОРИЯ ВЕРОЯТНОСТЕЙ И МАТЕМАТИЧЕСКАЯ СТАТИСТИКА доц. МЕЛЬНИКОВА И.Н. 501 | ИНОСТРАННЫЙ ЯЗЫК КРАВЧЕНКО Г.В. 305 КОВАЛЕНКО О.Н. 702 КАЛИЛЕЦ Л.М. 301 БАХУР И.Н. 412 ЛЕВОНЮК Ю.Е. 700 | ИНОСТРАННЫЙ ЯЗЫК КРАВЧЕНКО Г.В. 305 КОВАЛЕНКО О.Н. 702 КАЛИЛЕЦ Л.М. 301 БАХУР И.Н. 412 ЛЕВОНЮК Ю.Е. 700 | ИНОСТРАННЫЙ ЯЗЫК КРАВЧЕНКО Г.В. 305 КОВАЛЕНКО О.Н. 702 КАЛИЛЕЦ Л.М. 301 БАХУР И.Н. 412 ЛЕВОНЮК Ю.Е. 700 |  |  | |
4 пара 13.30-14.50 | интегрированный модуль ЭКОНОМИКА: СОЦИОЛОГИЯ доц. ЛАГУНОВСКАЯ Е.А. 617 | интегрированный модуль ЭКОНОМИКА: СОЦИОЛОГИЯ доц. ЛАГУНОВСКАЯ Е.А. 617 | интегрированный модуль ЭКОНОМИКА: СОЦИОЛОГИЯ доц. ЛАГУНОВСКАЯ Е.А. 617 | интегрированный модуль ЭКОНОМИКА: СОЦИОЛОГИЯ доц. ЛАГУНОВСКАЯ Е.А. 617 | интегрированный модуль ЭКОНОМИКА: СОЦИОЛОГИЯ доц. ЛАГУНОВСКАЯ Е.А. 617 | интегрированный модуль ЭКОНОМИКА: СОЦИОЛОГИЯ доц. ЛАГУНОВСКАЯ Е.А. 617 |  |  | |
5 пара 15.00-16.20 | МАТЕМАТИЧЕСКИЙ АНАЛИЗ доц. МЕЛЬНИКОВА И.Н. 702 | МАТЕМАТИЧЕСКИЙ АНАЛИЗ доц. МЕЛЬНИКОВА И.Н. 702 | ОБЩАЯ ФИЗИКА доц. КОТЛОВСКИЙ О.А. 518 | ДИСКРЕТНАЯ МАТЕМАТИКА И МАТЕМАТИЧЕСКАЯ ЛОГИКА доц. БУДЬКО А.Е. 602 | ДИСКРЕТНАЯ МАТЕМАТИКА И МАТЕМАТИЧЕСКАЯ ЛОГИКА доц. БУДЬКО А.Е. 602 | ЭЛЕКТРИЧЕСТВО И МАГНЕТИЗМ проф. ПЛЕТЮХОВ В.А. 420 |  | |
6 пара 16.30-17.50 | ОСНОВЫ УПРАВЛЕНИЯ ИНТЕЛЛЕКТУАЛЬНОЙ СОБСТВЕННОСТЬЮ ст. пр. ЗАЙЦЕВА Н.И. 702 | ОСНОВЫ УПРАВЛЕНИЯ ИНТЕЛЛЕКТУАЛЬНОЙ СОБСТВЕННОСТЬЮ ст. пр. ЗАЙЦЕВА Н.И. 702 | ОСНОВЫ УПРАВЛЕНИЯ ИНТЕЛЛЕКТУАЛЬНОЙ СОБСТВЕННОСТЬЮ ст. пр. ЗАЙЦЕВА Н.И. 702 | ДИФФЕРЕНЦИАЛЬНЫЕ УРАВНЕНИЯ проф. ЧИЧУРИН А.В. 602 | ДИФФЕРЕНЦИАЛЬНЫЕ УРАВНЕНИЯ проф. ЧИЧУРИН А.В. 602 |  |  |  | |
СУББОТА | |
1 пара 8.30-9.50 | ТЕХНОЛОГИИ ПРОГРАММИРОВАНИЯ И МЕТОДЫ АЛГОРИТМИЗАЦИИ доц. СИЛАЕВ Н.В. 402 | ТЕХНОЛОГИИ ПРОГРАММИРОВАНИЯ И МЕТОДЫ АЛГОРИТМИЗАЦИИ доц. СИЛАЕВ Н.В. 402 | ЭЛЕКТРОТЕХНИКА доц. ДЕМИДЧИК А.В. 603 | МАТЕМАТИЧЕСКИЙ АНАЛИЗ доц. ГРИЦУК Е.В. 602 | МАТЕМАТИЧЕСКИЙ АНАЛИЗ доц. ГРИЦУК Е.В. 602 | ТЕОРИЯ ВЕРОЯТНОСТЕЙ И МАТЕМАТИЧЕСКАЯ СТАТИСТИКА доц. МЕЛЬНИКОВА И.Н. 420 |  |  | |
2 пара 10.05-11.25 | МАТЕМАТИЧЕСКИЙ АНАЛИЗ доц. МЕЛЬНИКОВА И.Н. 402 | МАТЕМАТИЧЕСКИЙ АНАЛИЗ доц. МЕЛЬНИКОВА И.Н. 402 | ФИЗИЧЕСКАЯ ЭЛЕКТРОНИКА доц. ДЕМИДЧИК А.В. 603 | ДИФФЕРЕНЦИАЛЬНЫЕ УРАВНЕНИЯ проф. ЧИЧУРИН А.В. 602 | ДИФФЕРЕНЦИАЛЬНЫЕ УРАВНЕНИЯ проф. ЧИЧУРИН А.В. 602 | ПРОГРАММИРОВАНИЕ И МАТЕМ. МОДЕЛИРОВАНИЕ доц. КОТОВ И.В. 420 |  | |
3 пара 11.55-13.15 |  |  |  |  |  |  |  |  | |
4 пара 13.30-14.50 |  |  |  |  |  |  |  |  | |
 |  |  |  |  |  |  |  |  | |
 |  |  |  |  |  |  |  |  |  | |
ДЕКАН |ДЕКАН |ДЕКАН |  |  | О.А. КОТЛОВСКИЙ |  |  |  | |
 |  |  |  |  |  |  |  |  |  | |
 |  |  |  |  |  |  |  |  |  | |
